…
```r
# Build a dataframe with n. isoforms and longest protein size per gene
df = tibble::tibble(gene= names(p), aa= width(p))

df %>% 
  arrange(gene, desc(aa)) %>% 
  count(gene, sort = T) %>% 
  filter(n > 1)
```

```
## # A tibble: 4,623 × 2
##    gene               n
##    <chr>          <int>
##  1 GWHGBRAD003538    15
##  2 GWHGBRAD006368    15
##  3 GWHGBRAD011440    14
##  4 GWHGBRAD005819    13
##  5 GWHGBRAD006276    12
##  6 GWHGBRAD012733    12
##  7 GWHGBRAD012738    11
##  8 GWHGBRAD017471    11
##  9 GWHGBRAD001874     9
## 10 GWHGBRAD005623     9
## # ℹ 4,613 more rows
```
…
df <- df %>%  
  arrange(gene, desc(aa)) %>% 
  distinct(gene, .keep_all = TRUE) %>% 
  mutate(n_isof = nisof)

df %>% arrange(desc(n_isof))
```

```
## # A tibble: 28,626 × 3
##    gene              aa n_isof
##    <chr>          <int>  <int>
##  1 GWHGBRAD003538   443     15
##  2 GWHGBRAD006368   289     15
##  3 GWHGBRAD011440   682     14
##  4 GWHGBRAD005819   536     13
##  5 GWHGBRAD006276   288     12
##  6 GWHGBRAD012733   503     12
##  7 GWHGBRAD012738   658     11
##  8 GWHGBRAD017471   779     11
##  9 GWHGBRAD001874   638      9
## 10 GWHGBRAD005623   555      9
## # ℹ 28,616 more rows
```
…
